{
  "swagger": "2.0",
  "host": "localhost:8080",
  "basePath": "/api/fb_post/",
  "info": {
    "version": "1.0.0",
    "title": "FB Post API",
    "license": {
      "name": "ISC"
    }
  },
  "schemes": [
    "https",
    "http"
  ],
  "securityDefinitions": {
    "oauth": {
      "tokenUrl": "http://auth.ibtspl.com/oauth2/",
      "flow": "password",
      "scopes": {
        "read": "read users",
        "write": "create users",
        "update": "update users",
        "delete": "delete users",
        "superuser": "super user permission"
      },
      "type": "oauth2"
    }
  },
  "produces": [
    "application/json"
  ],
  "consumes": [
    "application/json"
  ],
  "definitions": {
    "User": {
      "type": "object",
      "properties": {
        "name": {
          "type": "string"
        },
        "profile_pic_url": {
          "type": "string"
        }
      },
      "required": [
        "name",
        "profile_pic_url"
      ]
    },
    "UserId": {
      "type": "object",
      "properties": {
        "user_id": {
          "type": "integer"
        }
      },
      "required": [
        "user_id"
      ]
    },
    "NewPost": {
      "type": "object",
      "properties": {
        "post_content": {
          "type": "string"
        }
      },
      "required": [
        "post_content"
      ]
    },
    "Post": {
      "type": "object",
      "properties": {
        "post_id": {
          "type": "number"
        },
        "post_content": {
          "type": "string"
        },
        "posted_at": {
          "type": "string",
          "format": "date-time"
        }
      },
      "required": [
        "post_id",
        "post_content",
        "posted_at"
      ]
    },
    "PostId": {
      "type": "object",
      "properties": {
        "post_id": {
          "type": "integer"
        }
      },
      "required": [
        "post_id"
      ]
    },
    "NewComment": {
      "type": "object",
      "properties": {
        "comment_description": {
          "type": "string"
        }
      },
      "required": [
        "comment_description"
      ]
    },
    "Comment": {
      "allOf": [
        {
          "type": "object",
          "properties": {
            "commenter": {
              "$ref": "#/definitions/User"
            }
          }
        },
        {
          "type": "object",
          "properties": {
            "comment_content": {
              "type": "string"
            },
            "comment_id": {
              "type": "number"
            }
          },
          "required": [
            "comment_content",
            "comment_id"
          ]
        },
        {
          "type": "object",
          "properties": {
            "reactions": {
              "$ref": "#/definitions/ReactionList"
            }
          }
        }
      ]
    },
    "CommentId": {
      "type": "object",
      "properties": {
        "comment_id": {
          "type": "integer"
        }
      },
      "required": [
        "comment_id"
      ]
    },
    "Reaction": {
      "type": "object",
      "properties": {
        "reaction_type": {
          "type": "string",
          "enum": [
            "LIKE",
            "LOVE",
            "WOW",
            "HEART",
            "SAD",
            "ANGRY"
          ]
        }
      },
      "required": [
        "reaction_type"
      ]
    },
    "ReactionType": {
      "type": "object",
      "properties": {
        "type": {
          "type": "string",
          "enum": [
            "LIKE",
            "LOVE",
            "WOW",
            "HEART",
            "SAD",
            "ANGRY"
          ]
        }
      },
      "required": [
        "type"
      ]
    },
    "PostList": {
      "type": "object",
      "properties": {
        "total": {
          "type": "integer"
        },
        "result": {
          "type": "array",
          "items": {
            "$ref": "#/definitions/Post"
          }
        }
      },
      "required": [
        "result",
        "total"
      ]
    },
    "ReactionList": {
      "type": "object",
      "properties": {
        "type": {
          "type": "array",
          "items": {
            "$ref": "#/definitions/ReactionType"
          }
        },
        "count": {
          "type": "number"
        }
      },
      "required": [
        "count"
      ]
    },
    "Reply": {
      "allOf": [
        {
          "$ref": "#/definitions/Comment"
        },
        {
          "$ref": "#/definitions/User"
        },
        {
          "$ref": "#/definitions/Reaction"
        }
      ]
    },
    "ReplyList": {
      "type": "object",
      "properties": {
        "total": {
          "type": "integer"
        },
        "result": {
          "type": "array",
          "items": {
            "$ref": "#/definitions/Reply"
          }
        }
      },
      "required": [
        "result",
        "total"
      ]
    },
    "CommentWithReplies": {
      "allOf": [
        {
          "$ref": "#/definitions/Comment"
        },
        {
          "$ref": "#/definitions/ReplyList"
        }
      ]
    },
    "CommentWithRepliesList": {
      "type": "object",
      "properties": {
        "comment_with_replies": {
          "type": "array",
          "items": {
            "$ref": "#/definitions/CommentWithReplies"
          }
        }
      }
    },
    "GetPost": {
      "allOf": [
        {
          "$ref": "#/definitions/Post"
        },
        {
          "type": "object",
          "properties": {
            "posted_by": {
              "$ref": "#/definitions/User"
            }
          },
          "required": [
            "posted_by"
          ]
        },
        {
          "type": "object",
          "properties": {
            "reactions": {
              "$ref": "#/definitions/ReactionList"
            }
          }
        },
        {
          "$ref": "#/definitions/CommentWithRepliesList"
        }
      ]
    },
    "GetPostList": {
      "type": "object",
      "properties": {
        "total": {
          "type": "integer"
        },
        "result": {
          "type": "array",
          "items": {
              "$ref": "#/definitions/GetPost"
            }
        }
      },
      "required": [
        "result",
        "total"
      ]
    },
    "PostReaction": {
      "allOf": [
        {
          "$ref": "#/definitions/User"
        },
        {
          "type": "object",
          "properties": {
            "reaction": {
              "type": "string"
            },
            "user_id": {
              "type": "string"
            }
          },
          "required": [
            "reaction",
            "user_id"
          ]
        }
      ]
    },
    "PostReactionList": {
      "type": "object",
      "properties": {
        "total": {
          "type": "integer"
        },
        "result": {
          "type": "array",
          "items": {
            "$ref": "#/definitions/PostReaction"
          }
        }
      },
      "required": [
        "result",
        "total"
      ]
    }
  },

  "responses": {
    "CreateNewPostResponse": {
      "description": "OK ACCEPTED",
      "schema": {
        "$ref": "#/definitions/PostId"
      }
    },
    "CreateNewCommentResponse": {
      "description": "OK ACCEPTED",
      "schema": {
        "$ref": "#/definitions/CommentId"
      }
    },
    "CreateNewReplyResponse": {
      "description": "OK ACCEPTED",
      "schema": {
        "$ref": "#/definitions/CommentId"
      }
    },
    "CreateNewReactionToPostResponse": {
      "description": "OK ACCEPTED",
      "schema": {
        "$ref": "#/definitions/Reaction"
      }
    },
    "GetPostsMorePositiveReactionsResponse": {
      "description": "REQUEST SUCCESS",
      "schema": {
        "$ref": "#/definitions/PostList"
      }
    },
    "GetPostsReactedByUserResponse": {
      "description": "REQUEST SUCCESS",
      "schema": {
        "$ref": "#/definitions/PostList"
      }
    },
    "GetReactionsToPostResponse": {
      "description": "REQUEST SUCCESS",
      "schema": {
        "$ref": "#/definitions/PostReactionList"
      }
    },
    "DeletePostResponse": {
      "description": "DELETE SUCCESS",
      "schema": {
        "type": "object",
        "properties": {
          "post_id": {
            "type": "number"
          }
        },
        "required": [
          "post_id"
        ]
      }
    },
    "GetRepliesForCommentResponse": {
      "description": "REQUEST SUCCESS",
      "schema": {
        "$ref": "#/definitions/ReplyList"
      }
    },
    "GetUserPostsResponse": {
      "description": "REQUEST SUCCESS",
      "schema": {
        "$ref": "#/definitions/PostList"
      }
    },
    "GetPostResponse": {
      "description": "REQUEST SUCCESS",
      "schema": {
        "$ref": "#/definitions/GetPost"
      }
    },
    "GetUserPostsResponse": {
      "description": "REQUEST OK",
      "schema": {
        "$ref": "#/definitions/GetPostList"
      }
    },
    "GetReactionMetricsResponse": {
      "description": "REQUEST OK",
      "schema": {
        "$ref": "#/definitions/ReactionList"
      }
    }
  },
  "parameters": {
    "CreateNewPostParameter": {
      "in": "body",
      "name": "body",
      "description": "Post object needs to be added to the feed.",
      "required": true,
      "schema": {
        "$ref": "#/definitions/NewPost"
      }
    },
    "CreateNewCommentBodyParameter": {
      "in": "body",
      "name": "body",
      "description": "Comment nee to be added to the post.",
      "required": true,
      "schema": {
        "$ref": "#/definitions/NewComment"
      }
    },
    "CreateNewCommentIdParameter": {
      "in": "path",
      "name": "id",
      "type": "number",
      "description": "comment id",
      "required": true
    },
    "CreateNewPostIdParameter": {
      "in": "path",
      "name": "id",
      "type": "number",
      "description": "post id",
      "required": true
    },
    "CreateNewReactionParameter": {
      "in": "body",
      "name": "body",
      "description": "Reaction need to be added",
      "required": true,
      "schema": {
        "$ref": "#/definitions/Reaction"
      }
    },
    "CreateNewCommentReactionIdParameter": {
      "in": "path",
      "name": "id",
      "type": "number",
      "description": "comment id",
      "required": true
    },
    "PaginationOffsetParameter": {
      "type": "integer",
      "in": "query",
      "name": "offset",
      "required": true
    },
    "PaginationLimitParameter": {
      "type": "integer",
      "in": "query",
      "name": "limit",
      "required": true
    }
  },
  "paths": {
    "/post/v1/": {
      "post": {
        "summary": "Add a new post to the feed.",
        "description": "You can add new post to the feed by using this endpoint",
        "operationId": "add_post",
        "security": [
          {
            "oauth": [
              "superuser"
            ]
          }
        ],
        "parameters": [
          {
            "$ref": "#/parameters/CreateNewPostParameter"
          }
        ],
        "responses": {
          "202": {
            "$ref": "#/responses/CreateNewPostResponse"
          }
        }
      }
    },
    "/post/{id}/comment/v1/": {
      "post": {
        "operationId": "add_comment",
        "summary": "Add new comment to the Post",
        "description": "You can add new comment to the post, by using this end-point",
        "security": [
          {
            "oauth": [
              "superuser"
            ]
          }
        ],
        "parameters": [
          {
            "$ref": "#/parameters/CreateNewCommentBodyParameter"
          },
          {
            "$ref": "#/parameters/CreateNewCommentIdParameter"
          }
        ],
        "responses": {
          "202": {
            "$ref": "#/responses/CreateNewCommentResponse"
          }
        }
      }
    },
    "/comment/{id}/reply/v1/": {
      "post": {
        "operationId": "add_reply_to_comment",
        "summary": "Add new reply for the comment",
        "description": "You can add reply for the comment's using this end-point.",
        "security": [
          {
            "oauth": [
              "superuser"
            ]
          }
        ],
        "parameters": [
          {
            "$ref": "#/parameters/CreateNewCommentIdParameter"
          },
          {
            "$ref": "#/parameters/CreateNewCommentBodyParameter"
          }
        ],
        "responses": {
          "202": {
            "$ref": "#/responses/CreateNewReplyResponse"
          }
        }
      },
      "get": {
        "summary": "Get replies for the comment",
        "operationId": "get_comment_replies",
        "description": "Get replies for the comment using the comment id.",
        "security": [
          {
            "oauth": [
              "superuser"
            ]
          }
        ],
        "parameters": [
          {
            "$ref": "#/parameters/CreateNewCommentIdParameter"
          },
          {
            "$ref": "#/parameters/PaginationOffsetParameter"
          },
          {
            "$ref": "#/parameters/PaginationLimitParameter"
          }
        ],
        "responses": {
          "202": {
            "$ref": "#/responses/GetRepliesForCommentResponse"
          }
        }
      }
    },
    "/post/{id}/react/v1/": {
      "post": {
        "operationId": "add_reaction_to_post",
        "summary": "Add new reaction to the post",
        "description": "You can add reaction for the post.",
        "security": [
          {
            "oauth": [
              "superuser"
            ]
          }
        ],
        "parameters": [
          {
            "$ref": "#/parameters/CreateNewPostIdParameter"
          },
          {
            "$ref": "#/parameters/CreateNewReactionParameter"
          }
        ],
        "responses": {
          "202": {
            "$ref": "#/responses/CreateNewReactionToPostResponse"
          }
        }
      }
    },
    "/post/{id}/react/metrics/v1/": {
      "get": {
        "summary": "Get reaction metrics for post.",
        "operationId": "get_reaction_metrics",
        "description": "Get reaction metrics of the post using the post id API end-point.",
        "parameters": [
          {
            "$ref": "#/parameters/CreateNewPostIdParameter"
          }
        ],
        "responses": {
          "200": {
            "$ref": "#/responses/GetReactionMetricsResponse"
          }
        }
      }
    },
    "/comment/{id}/react/v1/": {
      "post": {
        "summary": "Add new reaction to the post",
        "operationId": "add_reaction_to_comment",
        "description": "You can add reaction for the comment.",
        "security": [
          {
            "oauth": [
              "superuser"
            ]
          }
        ],
        "parameters": [
          {
            "$ref": "#/parameters/CreateNewCommentReactionIdParameter"
          },
          {
            "$ref": "#/parameters/CreateNewReactionParameter"
          }
        ],
        "responses": {
          "202": {
            "$ref": "#/responses/CreateNewReactionToPostResponse"
          }
        }
      }
    },
    "/post/positive/reactions/v1/": {
      "get": {
        "summary": "Get Posts with more positive reactions.",
        "operationId": "get_posts_with_more_positive_reactions",
        "description": "Get Posts with more positive reactions than negative reactions.",
        "security": [
          {
            "oauth": [
              "superuser"
            ]
          }
        ],
        "parameters": [
          {
            "$ref": "#/parameters/PaginationOffsetParameter"
          },
          {
            "$ref": "#/parameters/PaginationLimitParameter"
          }
        ],
        "responses": {
          "202": {
            "$ref": "#/responses/GetPostsMorePositiveReactionsResponse"
          }
        }
      }
    },
    "/user/reacted/posts/v1/": {
      "get": {
        "summary": "Get posts reacted by user.",
        "operationId": "get_posts_reacted_by_user",
        "description": "Get the posts of the user, that he/she reacted.",
        "security": [
          {
            "oauth": [
              "superuser"
            ]
          }
        ],
        "parameters": [
          {
            "$ref": "#/parameters/PaginationOffsetParameter"
          },
          {
            "$ref": "#/parameters/PaginationLimitParameter"
          }
        ],
        "responses": {
          "200": {
            "$ref": "#/responses/GetPostsReactedByUserResponse"
          }
        }
      }
    },
    "/post/{id}/reactions/v1/": {
      "get": {
        "summary": "Get post reactions.",
        "operationId": "get_reactions_to_post",
        "description": "Get the post reactions, using the post id.",
        "security": [
          {
            "oauth": [
              "superuser"
            ]
          }
        ],
        "parameters": [
          {
            "$ref": "#/parameters/CreateNewPostIdParameter"
          },
          {
            "$ref": "#/parameters/PaginationOffsetParameter"
          },
          {
            "$ref": "#/parameters/PaginationLimitParameter"
          }
        ],
        "responses": {
          "202": {
            "$ref": "#/responses/GetReactionsToPostResponse"
          }
        }
      }
    },
    "/reaction/count/v1/": {
      "get": {
        "summary": "Get Total Reactions Count",
        "operationId": "get_total_reactions_count",
        "description": "Get the count of all the reactions in the system.",
        "security": [
          {
            "oauth": [
              "superuser"
            ]
          }
        ],
        "parameters": [],
        "responses": {
          "202": {
            "description": "REQUEST SUCCESS",
            "schema": {
              "type": "object",
              "properties": {
                "reactions_count": {
                  "type": "integer"
                }
              },
              "required": [
                "reactions_count"
              ]
            }
          }
        }
      }
    },
    "/user/{id}/posts/v1/": {
      "get": {
        "summary": "Get user posts.",
        "operationId": "get_user_posts",
        "description": "Get the posts who own their posts.",
        "security": [
          {
            "oauth": [
              "superuser"
            ]
          }
        ],
        "parameters": [
          {
            "$ref": "#/parameters/CreateNewPostIdParameter"
          },
          {
            "$ref": "#/parameters/PaginationOffsetParameter"
          },
          {
            "$ref": "#/parameters/PaginationLimitParameter"
          }
        ],
        "responses": {
          "200": {
            "$ref": "#/responses/GetUserPostsResponse"
          }
        }
      }
    },
    "/post/{id}/v1/": {
      "get": {
        "summary": "Get post by id",
        "operationId": "get_post",
        "description": "Get post using the id of the post",
        "security": [
          {
            "oauth": [
              "superuser"
            ]
          }
        ],
        "parameters": [
          {
            "$ref": "#/parameters/CreateNewPostIdParameter"
          }
        ],
        "responses": {
          "200": {
            "$ref": "#/responses/GetUserPostsResponse"
          }
        }
      },
      "delete": {
        "summary": "Delete a post.",
        "operationId": "delete_post",
        "description": "Delete the post using the post id.",
        "security": [
          {
            "oauth": [
              "superuser"
            ]
          }
        ],
        "parameters": [
          {
            "$ref": "#/parameters/CreateNewPostIdParameter"
          }
        ],
        "responses": {
          "200": {
            "$ref": "#/responses/DeletePostResponse"
          }
        }
      }
    }
  }
}